<svg width="32" height="38" viewBox="0 0 32 38" fill="none" xmlns="http://www.w3.org/2000/svg">
<path d="M2.34071 12.3088C1.6891 12.3088 1.13623 12.5371 0.681768 12.9937C0.227302 13.4504 0 13.9984 0 14.6379V24.4575C0 25.1131 0.227233 25.6681 0.681768 26.1248C1.13623 26.5815 1.6891 26.8099 2.34071 26.8099C2.99184 26.8099 3.54136 26.5816 3.98878 26.1248C4.43532 25.6682 4.6592 25.1131 4.6592 24.4575V14.6379C4.6592 13.9983 4.43197 13.4504 3.97743 12.9937C3.5229 12.5371 2.97721 12.3088 2.34071 12.3088Z" fill="#42B067"/>
<path d="M21.1593 3.49368L22.7729 0.502599C22.8789 0.304576 22.8412 0.152727 22.6596 0.0459518C22.4624 -0.0461197 22.3109 0.000534422 22.2051 0.182616L20.5689 3.19761C19.1291 2.55799 17.6063 2.2376 16.0005 2.2376C14.3943 2.2376 12.8714 2.55806 11.4321 3.19761L9.79583 0.182616C9.6895 0.000534422 9.53803 -0.0457074 9.34137 0.0459518C9.15933 0.153208 9.12166 0.304576 9.22799 0.502599L10.8417 3.49368C9.20542 4.33215 7.9022 5.49988 6.93255 6.99941C5.96289 8.49976 5.47786 10.1393 5.47786 11.921H26.5002C26.5002 10.1397 26.0151 8.5001 25.0455 6.99941C24.0758 5.49988 22.7801 4.33215 21.1593 3.49368ZM11.8297 7.84426C11.6552 8.02002 11.4468 8.10749 11.2045 8.10749C10.9617 8.10749 10.7576 8.02002 10.591 7.84426C10.4244 7.66933 10.3411 7.46073 10.3411 7.21646C10.3411 6.97302 10.4244 6.76401 10.591 6.58866C10.7576 6.41372 10.9622 6.32625 11.2045 6.32625C11.4468 6.32625 11.6552 6.41372 11.8297 6.58866C12.0038 6.76442 12.0913 6.97302 12.0913 7.21646C12.0908 7.46031 12.0034 7.66933 11.8297 7.84426ZM21.4091 7.84426C21.2421 8.02002 21.0375 8.10749 20.7956 8.10749C20.5528 8.10749 20.3444 8.02002 20.1703 7.84426C19.9958 7.66933 19.9088 7.46073 19.9088 7.21646C19.9088 6.97302 19.9958 6.76401 20.1703 6.58866C20.3444 6.41372 20.5528 6.32625 20.7956 6.32625C21.0379 6.32625 21.2421 6.41372 21.4091 6.58866C21.5758 6.76442 21.6589 6.97302 21.6589 7.21646C21.6589 7.46031 21.5757 7.66933 21.4091 7.84426Z" fill="#42B067"/>
<path d="M5.56814 27.9515C5.56814 28.6525 5.81041 29.2459 6.29504 29.7328C6.78007 30.2198 7.37061 30.4632 8.06777 30.4632H9.74969L9.77273 35.6476C9.77273 36.3023 9.99997 36.8582 10.4544 37.315C10.9089 37.7717 11.4547 38 12.0907 38C12.7419 38 13.2952 37.7717 13.7497 37.315C14.2042 36.8582 14.4315 36.3024 14.4315 35.6476V30.4637H17.5677V35.6476C17.5677 36.3023 17.7949 36.8582 18.2494 37.315C18.704 37.7717 19.2567 38 19.9084 38C20.5596 38 21.1128 37.7717 21.5673 37.315C22.0218 36.8582 22.249 36.3024 22.249 35.6476V30.4637H23.9536C24.6353 30.4637 25.2183 30.2202 25.7038 29.7332C26.1884 29.2463 26.4308 28.6529 26.4308 27.952V12.7423H5.56814V27.9515Z" fill="#42B067"/>
<path d="M29.6594 12.3088C29.0228 12.3088 28.4775 12.5337 28.023 12.9824C27.5685 13.4319 27.3413 13.9841 27.3413 14.6379V24.4575C27.3413 25.1131 27.5684 25.6681 28.023 26.1248C28.4775 26.5816 29.0232 26.8099 29.6594 26.8099C30.3106 26.8099 30.8638 26.5816 31.3183 26.1248C31.7728 25.6681 32 25.1131 32 24.4575V14.6379C32 13.984 31.7728 13.4319 31.3183 12.9824C30.8638 12.5337 30.3106 12.3088 29.6594 12.3088Z" fill="#42B067"/>
</svg>
